COMPSCIX 415.2 Homework 5/Midterm
…
## [1] 2000.0 2015.5

46 cities are represented.

nrow(distinct(txhousing, city))

## [1] 46

The highest number of sales, 8945, occurred in Houston in July 2015.

txhousing %>% group_by(city, month, year) %>%
  arrange(desc(sales))

## # A tibble: 8,602 x 9
## # Groups:   city, month, year [8,602]
##    city     year month sales     volume median listings inventory  date
##    <chr>   <int> <int> <dbl>      <dbl>  <dbl>    <dbl>     <dbl> <dbl>
##  1 Houston  2015     7  8945 2568156780 217600    23875      3.40  2016
##  2 Houston  2006     6  8628 1795898108 155200    36281      5.60  2006
##  3 Houston  2013     7  8468 2168720825 187800    21497      3.30  2014
##  4 Houston  2015     6  8449 2490238594 222400    22311      3.20  2015
##  5 Houston  2013     5  8439 2121508529 186100    20526      3.30  2013
##  6 Houston  2014     6  8391 2342443127 211200    19725      2.90  2014
##  7 Houston  2014     7  8391 2278932511 199700    20214      3.00  2014
##  8 Houston  2014     8  8167 2195184825 202400    20007      2.90  2015
##  9 Houston  2013     8  8155 2083377894 186700    21366      3.30  2014
## 10 Houston  2006     5  8040 1602621368 151200    35398      5.50  2006
## # ... with 8,592 more rows
…
See table below for the proportion of sales missing for each city.

txhousing %>% group_by(city) %>% 
  summarize(proportion = mean(is.na(sales)))

## # A tibble: 46 x 2
##    city                  proportion
##    <chr>                      <dbl>
##  1 Abilene                   0     
##  2 Amarillo                  0     
##  3 Arlington                 0     
##  4 Austin                    0     
##  5 Bay Area                  0     
##  6 Beaumont                  0     
##  7 Brazoria County           0.0749
##  8 Brownsville               0.0107
##  9 Bryan-College Station     0     
## 10 Collin County             0     
## # ... with 36 more rows
…
