COMPSCIX 415.2 Take-Home Final
…
Question 2

The output confirms that this is a tibble with a list column of resample objects.

# Take 100 bootstrap samples of the data
titanic_boot <- bootstrap(data = titanic, n = 100)
titanic_boot 

## # A tibble: 100 x 2
##    strap          .id  
##    <list>         <chr>
##  1 <S3: resample> 001  
##  2 <S3: resample> 002  
##  3 <S3: resample> 003  
##  4 <S3: resample> 004  
##  5 <S3: resample> 005  
##  6 <S3: resample> 006  
##  7 <S3: resample> 007  
##  8 <S3: resample> 008  
##  9 <S3: resample> 009  
## 10 <S3: resample> 010  
## # ... with 90 more rows
…
