COMPSCIX 415.2 Homework 3
…
# An approach that gives the same output as not_cancelled %>% count(dest)
not_cancelled %>% group_by(dest) %>% summarize(n = n()) 

# An approach that gives the same output as not_cancelled %>% count(tailnum, wt = distance)
not_cancelled %>% group_by(tailnum) %>% summarize(n = sum(distance))

4.a. Examination of the number of cancelled flights per day.

Its difficult to discern a pattern for the number of cancelled flights per day. There is a big spike in cancelled flights on days 39 and 40, which suggests there may have been a winter storm or strike or other large scale event.

# Number of flights cancelled per day of year
flights %>% filter(is.na(dep_delay) | is.na(arr_delay)) %>%
  group_by(month, day) %>% count(day)

## # A tibble: 363 x 3
## # Groups:   month, day [363]
##    month   day     n
##    <int> <int> <int>
##  1     1     1    11
##  2     1     2    15
##  3     1     3    14
##  4     1     4     7
##  5     1     5     3
##  6     1     6     3
##  7     1     7     3
##  8     1     8     7
##  9     1     9     9
## 10     1    10     3
## # ... with 353 more rows
…
flights %>% group_by(carrier, dest) %>% summarize(n())

## # A tibble: 314 x 3
## # Groups:   carrier [?]
##    carrier dest  `n()`
##    <chr>   <chr> <int>
##  1 9E      ATL      59
##  2 9E      AUS       2
##  3 9E      AVL      10
##  4 9E      BGR       1
##  5 9E      BNA     474
##  6 9E      BOS     914
##  7 9E      BTV       2
##  8 9E      BUF     833
##  9 9E      BWI     856
## 10 9E      CAE       3
## # ... with 304 more rows

flights %>% group_by(dest, carrier) %>% 
  summarize(
    mean_delay = mean(dep_delay, na.rm = TRUE),
    n = n()) %>%
  arrange(desc(mean_delay)) %>% 
  print(n=50)

## # A tibble: 314 x 4
## # Groups:   dest [105]
##    dest  carrier mean_delay     n
##    <chr> <chr>        <dbl> <int>
##  1 STL   UA            77.5     2
##  2 ORD   OO            67.0     1
##  3 DTW   OO            61.0     2
##  4 RDU   UA            60.0     1
##  5 PBI   EV            48.7     6
##  6 TYS   EV            41.8   323
##  7 CAE   EV            36.7   113
##  8 TUL   EV            34.9   315
##  9 BGR   9E            34.0     1
## 10 MSY   WN            33.4   298
## 11 OKC   EV            30.6   346
## 12 BHM   EV            29.7   297
## 13 DSM   EV            28.8   478
## 14 JAC   UA            28.7    23
## 15 TVC   EV            27.5    68
## 16 BDL   UA            25.7     8
## 17 CLE   9E            25.6   349
## 18 PWM   EV            25.3   813
## 19 RIC   EV            24.7  2114
## 20 SAT   DL            24.4   303
## 21 CVG   MQ            23.9   365
## 22 DEN   B6            23.9   338
## 23 BQN   UA            23.9   297
## 24 MSN   EV            23.6   571
## 25 ALB   EV            23.6   439
## 26 ORD   9E            23.5  1056
## 27 ROC   EV            23.5   729
## 28 EGE   AA            23.4   103
## 29 CLT   9E            23.2   291
## 30 MKE   EV            23.1  1118
## 31 CLT   EV            23.1  2508
## 32 BWI   EV            22.9   352
## 33 ATL   EV            22.4  1764
## 34 CVG   EV            21.9  2013
## 35 PVD   EV            21.8   376
## 36 CLE   EV            21.6   588
## 37 ORF   MQ            21.5   365
## 38 CHO   EV            21.4    52
## 39 STL   EV            21.3  1826
## 40 DCA   EV            21.3  1717
## 41 MHT   EV            21.3   998
## 42 MCI   EV            21.2  1565
## 43 DAY   EV            21.2  1134
## 44 SBN   EV            21.1    10
## 45 IAD   YV            21.0   311
## 46 RDU   9E            20.8   912
## 47 PIT   B6            20.8    90
## 48 GSP   EV            20.8   747
## 49 CAK   FL            20.8   864
## 50 JAX   9E            20.7   400
## # ... with 264 more rows
…
